{
  "project_info": {
    "project_number": "20133369660",
    "project_id": "flash-chat-16b55",
    "storage_bucket": "flash-chat-16b55.appspot.com"
  },
  "client": [
    {
      "client_info": {
        "mobilesdk_app_id": "1:20133369660:android:3a536b0865981295c03039",
        "android_client_info": {
          "package_name": "com.example.chat_app"
        }
      },
      "oauth_client": [
        {
          "client_id": "20133369660-rdit32thif1imu06qe2j74lmrsaf7nns.apps.googleusercontent.com",
          "client_type": 3
        }
      ],
      "api_key": [
        {
          "current_key": "AIzaSyDrK3GxEI5Eng-dtd7UnwNnBWI8HvLCAaE"
        }
      ],
      "services": {
        "appinvite_service": {
          "other_platform_oauth_client": [
            {
              "client_id": "20133369660-rdit32thif1imu06qe2j74lmrsaf7nns.apps.googleusercontent.com",
              "client_type": 3
            }
          ]
        }
      }
    }
  ],
  "configuration_version": "1"
}